{
  "name": "drupal",
  "description": "Basic Drupal Installation with Drush",
  "json_class": "Chef::Role",
  "default_attributes": {
  },
  "override_attributes": {
  },
  "chef_type": "role",
  "run_list": [
     "recipe[drupal]",
     "recipe[drush]"
  ],
  "env_run_lists": {
  }
}
